{
  "type": "service_account",
  "project_id": "memorize-quran-2199c",
  "private_key_id": "68c956d90b0537e1f0772b30e75ca7831ec477ee",
  "private_key": "-----BEGIN PRIVATE KEY-----\nMIIEvAIBADANBgkqhkiG9w0BAQEFAASCBKYwggSiAgEAAoIBAQDGjqSdzp7yHPeC\nusAtE54xWLFfAbnRZu4UhDDQ3SGjwfClMy8ge4GbIw7TfX8/BJhMB1cgBcuoWOrV\nwsQnr/eGtzR92LI2uylAkXtfTQBZS2yIttw6e563FslXcwst7xDOb+oj54cmJe9f\ngprROVNC4Jq/waepne6bGphdPUfPYHCJ5LwMEaB9HbdjQHqWTs5LJCBQsTslXq22\nihKh0fuBVorhR8JASkC7Oithi5c/lKhXeCrYsLQ5NQuCrw75w4d7xjZUft38L+r3\n4W2zgF8Ev1SC88+GbjaSSmeCNvkpym9wJREsxG6OFtF0apG8OCdh2LUsXBu306qo\n37Pk0BfBAgMBAAECggEAW6CJwLUPzkSlx3MsqeCKuNToDSK7wDFSnq8d49SX6Hzf\n8yw6jC/ScGfuOJSKOueA7FzazNE/2TEnNXvKj1H51PYISCbOnskh0UURfLoI9iwD\nKtfPq0FOzci7IxrYxtqyk8E7eFQonucUnquji/d7P7psTx8rou9Zo8PTGfvkfoJ+\nKvNxBphe2y5pTn8KC1oAvpxHiMcUQzUhqXwhPD32OmADgGJcilGahLIz3Q5sU7Im\nc3m0JFB9qh6uqS0VTjG0yp6zBzRm8HM7jf++3kYeSiuG6tVBU/CxHggngO/kkNc6\nqWIJ/uHY0IQSHc4R4N1InlQnWmhzUKpzW8IFTaTC/QKBgQD8E8H31M47moq2JbiJ\nKD+9s1kIong/yqHcEYwSZaryjcVgU/WPy/ua4zj4+cjoWhUu+5Q5RDddNhY4Zkx5\nwq7R/D6gyug7ij4QlT+SFJ/8GrXsGE6gntDxS1bJMknaHe84p4p+x1UwfWQRLp3G\nMo8T0HDvQ5B8yAJJDxz+GDYJIwKBgQDJpas11GZd3x5MBNbsWzDDIpcGRJ6RNC1e\nGoklq+cWj1eXBCaR/7ZXth9gpWpZnxNTsaMfq6UphHE0pKUG+Ijc1vMZH4NEFMNb\nJj33XjKD6E2S7HFK9rt0myPSG3vQ6zNyTXx8IEdZvfBtsQE0AINNdA9YJoFWHQe7\nu1H3pkXTywKBgEoTmE23KL/VQ2wRm7AattiNat2huQquBnDAa1RAskLDLLyJD8Gp\nJRA4M9beuI6nYlBDOCS4CjkHGvKKBXFGp88nfFQOLL7KekCvS1YnX3hbdRijb/+9\njBNMm31WnONPJqyUd5uYAk3Um2J9O3oyA1/EQlvdlAlHUXycx11YShDXAoGALl44\nFnK271MFBnn+ae82MUjc7YYN6FnVLNRxQQZcZyWjAIjlzaC9b0HjyTeAUwdvTEmG\ntxujKP7ZgT9y6z1vS0jqMZa7eoZDvcv3Z9BzUT2zyNsx2gkOZeveusuzFwFenSQQ\nQgKyJYK1rKONIUYU61SKyrxf9UtLofGbEZVcbS0CgYB1zCVakMC7JVLhx8z3Vfq/\n8Oi42esXTPldOuEdKLoGSgALCbPwx45eV6fNDqLtCNN3pKiEg/H4mrBbm/WCJbn1\nfXG5ty9+HVGiknLWWxBTjXBUpYFyoXsXjE3cA/CvUoqh3/+uf8B+KK28ym0TAbuv\n0JLWUMJDuVYGIThxhrW6/Q==\n-----END PRIVATE KEY-----\n",
  "client_email": "memorize-quran-2199c@appspot.gserviceaccount.com",
  "client_id": "115497126691964097004",
  "auth_uri": "https://accounts.google.com/o/oauth2/auth",
  "token_uri": "https://oauth2.googleapis.com/token",
  "auth_provider_x509_cert_url": "https://www.googleapis.com/oauth2/v1/certs",
  "client_x509_cert_url": "https://www.googleapis.com/robot/v1/metadata/x509/memorize-quran-2199c%40appspot.gserviceaccount.com"
}
